{
	"info": {
		"_postman_id": "2cf0b374-b7b5-4553-8edb-0c06e4bcc656",
		"name": "Ejemplo API .NET",
		"schema": "https://schema.getpostman.com/json/collection/v2.1.0/collection.json"
	},
	"item": [
		{
			"name": "Libro",
			"item": [
				{
					"name": "Obtener todos",
					"request": {
						"method": "GET",
						"header": [],
						"url": {
							"raw": "http://localhost:54846/api/Libro/",
							"protocol": "http",
							"host": [
								"localhost"
							],
							"port": "54846",
							"path": [
								"api",
								"Libro",
								""
							]
						}
					},
					"response": []
				},
				{
					"name": "Obtener",
					"request": {
						"method": "GET",
						"header": [],
						"url": {
							"raw": "http://localhost:54846/api/Libro/1",
							"protocol": "http",
							"host": [
								"localhost"
							],
							"port": "54846",
							"path": [
								"api",
								"Libro",
								"1"
							]
						}
					},
					"response": []
				},
				{
					"name": "Crear",
					"request": {
						"method": "POST",
						"header": [
							{
								"key": "Content-Type",
								"name": "Content-Type",
								"value": "application/json",
								"type": "text"
							}
						],
						"body": {
							"mode": "raw",
							"raw": "{\r\n  \"Titulo\": \"Libro de ejemplo 1\",\r\n  \"Sinopsis\": null,\r\n  \"Autor\": \"Pepe Pérez\",\r\n  \"Editorial\": \"Norma\",\r\n  \"Idioma\": \"Español\",\r\n  \"Formato\": \"N/A\",\r\n  \"Genero\": \"Ficción\",\r\n  \"Disponible\": true\r\n}",
							"options": {
								"raw": {
									"language": "json"
								}
							}
						},
						"url": {
							"raw": "http://localhost:54846/api/Libro/",
							"protocol": "http",
							"host": [
								"localhost"
							],
							"port": "54846",
							"path": [
								"api",
								"Libro",
								""
							]
						}
					},
					"response": []
				},
				{
					"name": "Editar",
					"request": {
						"method": "PUT",
						"header": [
							{
								"key": "Content-Type",
								"name": "Content-Type",
								"value": "application/json",
								"type": "text"
							}
						],
						"body": {
							"mode": "raw",
							"raw": "{\r\n  \"IdLibro\": 2,\r\n  \"Titulo\": \"Libro de ejemplo 2\",\r\n  \"Sinopsis\": \"Libro con id 2\",\r\n  \"Autor\": \"Pepe Pérez\",\r\n  \"Editorial\": \"Norma\",\r\n  \"Idioma\": \"Español\",\r\n  \"Formato\": \"N/A\",\r\n  \"Genero\": \"Ficción\",\r\n  \"Disponible\": true\r\n}",
							"options": {
								"raw": {
									"language": "json"
								}
							}
						},
						"url": {
							"raw": "http://localhost:54846/api/Libro/2",
							"protocol": "http",
							"host": [
								"localhost"
							],
							"port": "54846",
							"path": [
								"api",
								"Libro",
								"2"
							]
						}
					},
					"response": []
				},
				{
					"name": "Eliminar",
					"request": {
						"method": "DELETE",
						"header": [],
						"url": {
							"raw": "http://localhost:54846/api/Libro/3",
							"protocol": "http",
							"host": [
								"localhost"
							],
							"port": "54846",
							"path": [
								"api",
								"Libro",
								"3"
							]
						}
					},
					"response": []
				}
			],
			"protocolProfileBehavior": {}
		}
	],
	"protocolProfileBehavior": {}
}